[
  {
    "objectID": "docs/report/00_intro.html",
    "href": "docs/report/00_intro.html",
    "title": "Introduction",
    "section": "",
    "text": "Introduction"
  },
  {
    "objectID": "docs/report/11_milestone2.html",
    "href": "docs/report/11_milestone2.html",
    "title": "Milestone 2",
    "section": "",
    "text": "Milestone 2"
  },
  {
    "objectID": "docs/report/20_conclusion.html",
    "href": "docs/report/20_conclusion.html",
    "title": "Conlusion",
    "section": "",
    "text": "Conlusion"
  },
  {
    "objectID": "docs/presentation/presentation.html#style-of-figures",
    "href": "docs/presentation/presentation.html#style-of-figures",
    "title": "Automatic model discovery using symbolic regression (I/II)",
    "section": "Style of figures",
    "text": "Style of figures\nCan be changed in the matplotlibstyle.py file."
  },
  {
    "objectID": "docs/presentation/presentation.html#embed-a-figure-from-a-notebook",
    "href": "docs/presentation/presentation.html#embed-a-figure-from-a-notebook",
    "title": "Automatic model discovery using symbolic regression (I/II)",
    "section": "Embed a figure from a notebook",
    "text": "Embed a figure from a notebook\n\n\n\n\n\n\n\n\n\n\nFigure 1: Caption"
  },
  {
    "objectID": "docs/presentation/presentation.html#embed-output-from-a-notebook",
    "href": "docs/presentation/presentation.html#embed-output-from-a-notebook",
    "title": "Automatic model discovery using symbolic regression (I/II)",
    "section": "Embed output from a notebook",
    "text": "Embed output from a notebook\n\n\n\n\nTest output"
  },
  {
    "objectID": "docs/presentation/presentation.html#embed-existing-figures",
    "href": "docs/presentation/presentation.html#embed-existing-figures",
    "title": "Automatic model discovery using symbolic regression (I/II)",
    "section": "Embed existing figures",
    "text": "Embed existing figures"
  },
  {
    "objectID": "docs/presentation/presentation.html#columns",
    "href": "docs/presentation/presentation.html#columns",
    "title": "Automatic model discovery using symbolic regression (I/II)",
    "section": "Columns",
    "text": "Columns\n\n\nODE: \\[\n\\begin{align*}\n\\begin{pmatrix}\n\\dot{w} \\\\ \\dot{d}\n\\end{pmatrix}\n=\n\\begin{pmatrix}\nw(\\alpha - \\beta d) \\\\ d(-\\delta + \\gamma w)\n\\end{pmatrix}\n\\end{align*}\n\\]\n\n\nwolves: \\(w\\), deer: \\(d\\)\nparameters: \\(P=(\\alpha, \\beta, \\gamma, \\delta)\\)\ninitial condition: \\(w^0\\), \\(d^0\\)"
  },
  {
    "objectID": "docs/presentation/presentation.html#tex",
    "href": "docs/presentation/presentation.html#tex",
    "title": "Automatic model discovery using symbolic regression (I/II)",
    "section": "Tex",
    "text": "Tex\n\\[\\begin{align*}\n\\text{discrete states } & \\mathbf{U} =\n\\begin{bmatrix}\n  \\begin{pmatrix}\n  w^0 \\\\ d^0\n  \\end{pmatrix},\n  \\begin{pmatrix}\n  w^1 \\\\ d^1\n  \\end{pmatrix},\n  \\dots,\n  \\begin{pmatrix}\n  w^N \\\\ d^N\n  \\end{pmatrix}\n\\end{bmatrix}\n\\in \\mathbb{R}^{2(N+1)}\n\\\\\n\\text{additional data }& \\mathbf{Q} =\n\\begin{bmatrix}\n  \\begin{pmatrix}\n  dt^0\n  \\end{pmatrix},\n  \\begin{pmatrix}\n  dt^1\n  \\end{pmatrix},\n  \\dots,\n  \\begin{pmatrix}\n  dt^{N-1}\n  \\end{pmatrix}\n\\end{bmatrix}\n\\in \\mathbb{R}^{N}\n\\end{align*}\\]"
  },
  {
    "objectID": "docs/presentation/presentation.html#annotate-code",
    "href": "docs/presentation/presentation.html#annotate-code",
    "title": "Automatic model discovery using symbolic regression (I/II)",
    "section": "Annotate code",
    "text": "Annotate code\nThe &lt;1&gt; allows you tag lines to reference later\n\n\nimport numpy as np\nimport matplotlib.pyplot as plt\n\n1x = np.linspace(0,1,100)\n2plt.plot(x,x)\n\n\n1\n\ngenerate data\n\n2\n\nplot"
  },
  {
    "objectID": "docs/presentation/presentation.html#compute-directly-in-the-presentation",
    "href": "docs/presentation/presentation.html#compute-directly-in-the-presentation",
    "title": "Automatic model discovery using symbolic regression (I/II)",
    "section": "Compute directly in the presentation",
    "text": "Compute directly in the presentation\nThe directives\n#| echo: false\n#| eval: true\nenables you to commend out the input/output"
  },
  {
    "objectID": "docs/presentation/presentation.html#declare-commands-hide-content",
    "href": "docs/presentation/presentation.html#declare-commands-hide-content",
    "title": "Automatic model discovery using symbolic regression (I/II)",
    "section": "Declare commands / Hide content",
    "text": "Declare commands / Hide content\nUsing\n::: hidden\n$$\n\\DeclareMathOperator*{\\argmin}{arg\\,min}\n$$\n:::\nwe can define a latex operator if needed.\n\n\\[\n\\DeclareMathOperator*{\\argmin}{arg\\,min}\n\\]\n\n\\[\\begin{align*}\n  & \\hat{\\mathbf{\\xi}} = \\argmin_{\\mathbf{\\xi}} || \\mathbf{U}_t - \\mathbf{\\Theta}(\\mathbf{U}, \\mathbf{Q}) \\xi ||^2_2 + \\epsilon \\; \\kappa \\left( \\mathbf{\\Theta}(\\mathbf{U}, \\mathbf{Q})  \\right) ||\\mathbf{\\xi}||_0 \\\\\n  & \\epsilon : \\text{regularization parameter} \\\\\n  & \\kappa :  \\text{condition number of } \\mathbf{\\Theta} \\\\\n  & ||\\mathbf{\\xi}||_0 : \\text{penalty to discourage overfitting}\n\\end{align*}\\]"
  },
  {
    "objectID": "docs/presentation/presentation.html#lists",
    "href": "docs/presentation/presentation.html#lists",
    "title": "Automatic model discovery using symbolic regression (I/II)",
    "section": "Lists",
    "text": "Lists\nMy suggestion:\n\nSINDy: some examples (simple to complex)\n\nODE problem\nPDE problem\nbuilding complex candidate libraries\nnoisy data\nsparse data\n\n\nAre you interested in:\n\nSINDy: control problem?\nPySR: explain a neural net?"
  },
  {
    "objectID": "docs/presentation/presentation.html#references",
    "href": "docs/presentation/presentation.html#references",
    "title": "Automatic model discovery using symbolic regression (I/II)",
    "section": "References",
    "text": "References\n\nRudy et al. (2017)\nYe and Guo (2023)\n\n\n\n\n\n\n\nRudy, Samuel H., Steven L. Brunton, Joshua L. Proctor, and J. Nathan Kutz. 2017. “Data-Driven Discovery of Partial Differential Equations.” Science Advances 3 (4): e1602614. https://doi.org/10.1126/sciadv.1602614.\n\n\nYe, Dongwei, and Mengwu Guo. 2023. “Gaussian Process Learning of Nonlinear Dynamics.”"
  },
  {
    "objectID": "docs/orga/organization.html",
    "href": "docs/orga/organization.html",
    "title": "Organization",
    "section": "",
    "text": "Kick-Off Meeting: tbd.\nMilestone 1 Meeting: tbd.\nMilestone 2 Meeting: tbd.\nMilestone 3 Meeting: tbd.\nDeadline presentation: tbd.\nPresentation date: tbd.\nDeadline report: tbd.",
    "crumbs": [
      "Organization"
    ]
  },
  {
    "objectID": "docs/orga/organization.html#dates",
    "href": "docs/orga/organization.html#dates",
    "title": "Organization",
    "section": "",
    "text": "Kick-Off Meeting: tbd.\nMilestone 1 Meeting: tbd.\nMilestone 2 Meeting: tbd.\nMilestone 3 Meeting: tbd.\nDeadline presentation: tbd.\nPresentation date: tbd.\nDeadline report: tbd.",
    "crumbs": [
      "Organization"
    ]
  },
  {
    "objectID": "docs/orga/organization.html#grading",
    "href": "docs/orga/organization.html#grading",
    "title": "Organization",
    "section": "Grading",
    "text": "Grading\nThe total grade of the project takes the following things into consideration.\n\nReport (40%)\n\nConcise\nNarrative\nCorrectness\nReadability\nGraphics\nReferences\n\nCode (20%)\n\nCorrectness\nQuality\nDocumentation\n\nPresentation (20%)\n\nConcise Talk\nReadability\nLayout and Graphics\n\nProject Management (20%)\n\nMeeting deadlines\nMeeting milestones\nGeneral communication",
    "crumbs": [
      "Organization"
    ]
  },
  {
    "objectID": "docs/orga/organization.html#workload",
    "href": "docs/orga/organization.html#workload",
    "title": "Organization",
    "section": "Workload",
    "text": "Workload\n\nNumber of students/ group: 3\nNumber of hours/ credit : 30\nTotal Workload / group: 6 credits x 3 students x 30 hours = 570 hours\nLecture Workload /group : 100 hours\nLab Workload : Total Workload - Lecture Workload = 470 hours",
    "crumbs": [
      "Organization"
    ]
  },
  {
    "objectID": "docs/orga/milestones.html",
    "href": "docs/orga/milestones.html",
    "title": "",
    "section": "",
    "text": "We plan with ~20% buffer. You are responsible for the time management. Get in tough if specific tasks seem to require more work than anticipated.",
    "crumbs": [
      "Milestones"
    ]
  },
  {
    "objectID": "docs/orga/milestones.html#milestones",
    "href": "docs/orga/milestones.html#milestones",
    "title": "",
    "section": "",
    "text": "We plan with ~20% buffer. You are responsible for the time management. Get in tough if specific tasks seem to require more work than anticipated.",
    "crumbs": [
      "Milestones"
    ]
  },
  {
    "objectID": "index.html#abstract",
    "href": "index.html#abstract",
    "title": "Project title",
    "section": "Abstract",
    "text": "Abstract"
  },
  {
    "objectID": "index.html#getting-started",
    "href": "index.html#getting-started",
    "title": "Project title",
    "section": "Getting started",
    "text": "Getting started\nHave a look at our wiki.\n\nReferences\n\n\nBollermann, Andreas, Guoxian Chen, Alexander Kurganov, and Sebastian Noelle. 2013. “A Well-Balanced Reconstruction of Wet/Dry Fronts for the Shallow Water Equations.” Journal of Scientific Computing 56 (2): 267–90. https://doi.org/10.1007/s10915-012-9677-5.\n\n\nDelestre, Olivier, Carine Lucas, Pierre-Antoine Ksinant, Frédéric Darboux, Christian Laguerre, Thi Ngoc Tuoi Vo, Francois James, and Stephane Cordier. 2013. “SWASHES: A Compilation of Shallow Water Analytic Solutions for Hydraulic and Environmental Studies.” International Journal for Numerical Methods in Fluids 72 (3): 269–300. https://doi.org/10.1002/fld.3741."
  },
  {
    "objectID": "code/testcases.html",
    "href": "code/testcases.html",
    "title": "Testcases",
    "section": "",
    "text": "This is a collection of testcases that we analyzed in order to find a proper candidate for our project."
  },
  {
    "objectID": "code/testcases.html#imports",
    "href": "code/testcases.html#imports",
    "title": "Testcases",
    "section": "Imports",
    "text": "Imports\n\n\nimport numpy as np\nimport jax.numpy as jnp\nimport os \nimport matplotlib.pyplot as plt\nfrom IPython.display import Image\nfrom copy import deepcopy as copy\nfrom IPython.display import Image\nimport shutil\n\n\nfrom visualization import animate, plot, plot_timeline\nfrom model import (\n    max_abs_eigenvalue,\n    initial_condition_constant,\n    initial_condition_dam_break,\n    initial_condition_constant_with_bump,\n    initial_condition_dam_break_with_bump,\n    initial_topography_constant,\n    initial_topography_bump,\n    boundary_condition_extrapolation,\n    boundary_condition_periodic,\n    boundary_condition_inflowoutflow_supercritical,\n    boundary_condition_wall,\n    create_default_parameters,\n)\nfrom postprocessor import kinetic_energy_at_outlet_over_time\n\nfrom solver_unsteady import fvm_CU, fvm_LF"
  },
  {
    "objectID": "code/testcases.html#tc1-tsunami",
    "href": "code/testcases.html#tc1-tsunami",
    "title": "Testcases",
    "section": "TC1: Tsunami",
    "text": "TC1: Tsunami\n\nModel with \\(h=0.5\\)\n\n# Model\nparam = create_default_parameters()\nparam.topo.position = 0.5\nparam.topo.height = 0.4\n\ninitial_condition=initial_condition_dam_break_with_bump\ninitial_topography=initial_topography_bump\nboundary_condition=boundary_condition_inflowoutflow_supercritical\n\n# Solver settings\noutput_folder = f'out_{param.topo.height}_LF/'.replace('.', '')\nshutil.rmtree(output_folder, ignore_errors=True)\nos.makedirs(output_folder, exist_ok=True)\nN = 100\nT = 1.0\nanimation_duration = 5\n\nSimulation\n\nsolver_name='LF'\n# Runner\ntimeline, mesh = fvm_LF(\n    N=N,\n    T=T,\n    initial_condition=initial_condition,\n    initial_topography=initial_topography,\n    boundary_condition=boundary_condition,\n    param=param,\n    dt=1./N/4\n)\n\nSimulation running. Time: 0.0025 - iteration 1.\nSimulation running. Time: 0.04 - iteration 16.\nSimulation running. Time: 0.07750000000000003 - iteration 31.\nSimulation running. Time: 0.11250000000000006 - iteration 45.\nSimulation running. Time: 0.14750000000000008 - iteration 59.\nSimulation running. Time: 0.19500000000000012 - iteration 78.\nSimulation running. Time: 0.23000000000000015 - iteration 92.\nSimulation running. Time: 0.2750000000000002 - iteration 110.\nSimulation running. Time: 0.33000000000000024 - iteration 132.\nSimulation running. Time: 0.3825000000000003 - iteration 153.\nSimulation running. Time: 0.43750000000000033 - iteration 175.\nSimulation running. Time: 0.4925000000000004 - iteration 197.\nSimulation running. Time: 0.5474999999999993 - iteration 219.\nSimulation running. Time: 0.5899999999999984 - iteration 236.\nSimulation running. Time: 0.6274999999999976 - iteration 251.\nSimulation running. Time: 0.6824999999999964 - iteration 273.\nSimulation running. Time: 0.7274999999999955 - iteration 291.\nSimulation running. Time: 0.7624999999999947 - iteration 305.\n\n\nPostprocessing\n\n\ntime_KE, KE_outlet_over_time = kinetic_energy_at_outlet_over_time(timeline, mesh, param)\n\nfilepath_plot = os.path.join(output_folder, f'fvm_{solver_name}')\n# np.save(os.path.join(output_folder, 'timeline.npy'), np.array([timeline[i][0] for i in range(len(timeline))]))\n# np.save(os.path.join(output_folder, 'solution.npy'), np.array([timeline[i][1] for i in range(len(timeline))]))\n# np.save(os.path.join(output_folder, 'topography.npy'), np.array([timeline[i][2] for i in range(len(timeline))]))\n# np.save(os.path.join(output_folder, 'mesh.npy'), mesh)\n\noutput_timestamps = np.linspace(0., T, 5)\n\n# Plotting\nplot(timeline, mesh, filename=filepath_plot, output_timestamps=output_timestamps)\nplt.close()\n# animate(timeline, mesh, animation_duration=animation_duration, filename=filepath_plot)\n# plt.close()\nfilepath_plot = os.path.join(output_folder, 'kinetic_energy')\nplot_timeline(time_KE, KE_outlet_over_time, 'KE', filepath_plot)\nplt.close()\n\n\nImage(filename=f'{output_folder}/fvm_LF.png')\n\n\n\n\n\n\n\n\n\n# Image(filename=f'{output_folder}/fvm_LF.gif')\n\n\nImage(filename=f'{output_folder}/kinetic_energy.png')"
  },
  {
    "objectID": "docs/orga/tasklist.html#students",
    "href": "docs/orga/tasklist.html#students",
    "title": "Task List",
    "section": "Students",
    "text": "Students\n\nRead through milestones and discuss/agree the objectives",
    "crumbs": [
      "Task List"
    ]
  },
  {
    "objectID": "docs/orga/meeting1.html",
    "href": "docs/orga/meeting1.html",
    "title": "Meeting 1: Kick-off",
    "section": "",
    "text": "We discussed:\n\nMBD Vision for the project\nMilestones\nGrading\nDocumentation with Quarto\nFirst tasks(see todos)",
    "crumbs": [
      "Meeting 1: Kick-off"
    ]
  },
  {
    "objectID": "docs/presentation/sample_notebook.html",
    "href": "docs/presentation/sample_notebook.html",
    "title": "Run a solver and plot data",
    "section": "",
    "text": "The beauty is that we can simply switch the style to generate the right plot for the occasion!\n# import matplotlib\n# styles can be found here https://matplotlib.org/stable/gallery/style_sheets/style_sheets_reference.html\n# print(matplotlib.style.available)\nimport matplotlib.pyplot as plt\nimport sample_code as code\n# plt.style.use('seaborn-v0_8-talk')\nfrom matplotlibstyle import *\n\nfig, ax = plt.subplots(2, constrained_layout=True)\nx, y = code.solver()\ncode.plot(ax[0], x, y, label='sin(x)')\ncode.plot(ax[0], x, 2*y, label='2*sin(x)')\ncode.plot(ax[1], x, 3*y, label='3*sin(x)')\nax[0].legend()\nax[1].legend()\nplt.show()\n\n\n\n\n\n\n\nFigure 1: Caption"
  },
  {
    "objectID": "docs/presentation/sample_notebook.html#generate-cell-output",
    "href": "docs/presentation/sample_notebook.html#generate-cell-output",
    "title": "Run a solver and plot data",
    "section": "Generate cell output",
    "text": "Generate cell output\nYou need to tag the cell below in order to reference it in the presentation.\n\nprint('Test output')\n\nTest output"
  },
  {
    "objectID": "docs/report/30_references.html",
    "href": "docs/report/30_references.html",
    "title": "",
    "section": "",
    "text": "Bollermann, Andreas, Guoxian Chen, Alexander Kurganov, and Sebastian Noelle. 2013. “A Well-Balanced Reconstruction of Wet/Dry Fronts for the Shallow Water Equations.” Journal of Scientific Computing 56 (2): 267–90. https://doi.org/10.1007/s10915-012-9677-5.\n\n\nDelestre, Olivier, Carine Lucas, Pierre-Antoine Ksinant, Frédéric Darboux, Christian Laguerre, Thi Ngoc Tuoi Vo, Francois James, and Stephane Cordier. 2013. “SWASHES: A Compilation of Shallow Water Analytic Solutions for Hydraulic and Environmental Studies.” International Journal for Numerical Methods in Fluids 72 (3): 269–300. https://doi.org/10.1002/fld.3741."
  },
  {
    "objectID": "docs/report/30_references.html#references",
    "href": "docs/report/30_references.html#references",
    "title": "",
    "section": "",
    "text": "Bollermann, Andreas, Guoxian Chen, Alexander Kurganov, and Sebastian Noelle. 2013. “A Well-Balanced Reconstruction of Wet/Dry Fronts for the Shallow Water Equations.” Journal of Scientific Computing 56 (2): 267–90. https://doi.org/10.1007/s10915-012-9677-5.\n\n\nDelestre, Olivier, Carine Lucas, Pierre-Antoine Ksinant, Frédéric Darboux, Christian Laguerre, Thi Ngoc Tuoi Vo, Francois James, and Stephane Cordier. 2013. “SWASHES: A Compilation of Shallow Water Analytic Solutions for Hydraulic and Environmental Studies.” International Journal for Numerical Methods in Fluids 72 (3): 269–300. https://doi.org/10.1002/fld.3741."
  },
  {
    "objectID": "docs/report/12_milestone3.html",
    "href": "docs/report/12_milestone3.html",
    "title": "Milestone 3",
    "section": "",
    "text": "Milestone 3"
  },
  {
    "objectID": "docs/report/10_milestone1.html",
    "href": "docs/report/10_milestone1.html",
    "title": "Milestone 1",
    "section": "",
    "text": "This is jupyter notebook with some python code and markdown text. These can also be included directly into a quarto website."
  },
  {
    "objectID": "docs/report/10_milestone1.html#import-libraries",
    "href": "docs/report/10_milestone1.html#import-libraries",
    "title": "Milestone 1",
    "section": "Import Libraries",
    "text": "Import Libraries\n\nimport matplotlib.pyplot as plt\nimport numpy as np"
  },
  {
    "objectID": "docs/report/10_milestone1.html#make-plots",
    "href": "docs/report/10_milestone1.html#make-plots",
    "title": "Milestone 1",
    "section": "Make Plots",
    "text": "Make Plots\nWe shall now make a simple plot. Note that by using the quarto option #| code-fold: true , we can hide the code that is used to make the plot and allow it to be expanded as shown below.\n\n\nCode\nimport matplotlib.pyplot as plt\nimport numpy as np\nx = np.linspace(0, 2, 100)  # Sample data.\n\nplt.figure()\nplt.plot(x, x, label='linear')  # Plot some data on the (implicit) axes.\nplt.plot(x, x**2, label='quadratic')  # etc.\nplt.plot(x, x**3, label='cubic')\nplt.xlabel('x')\nplt.ylabel('y')\nplt.title(\"Simple Plot\")\nplt.legend()\nplt.show()"
  },
  {
    "objectID": "docs/wiki/index.html",
    "href": "docs/wiki/index.html",
    "title": "Wiki",
    "section": "",
    "text": "1. Install Quarto\n2. Run the install.sh in the scripts folder to install all other project requirements.\n\n\n\n1. Install Quarto\n2. Install all depenencies listed in the scripts/install.sh\n3. Create a python environment for python dependencies, e.g. using\npython -m pip install venv .venv\nin the root folder of the project. Thiscreates a virtual environment called .venv. Now load the environment using\nsource .venv/bin/activate\nand install the python dependencies with\npython -m pip install -r requirements.txt\n\n\n\n\n\n\nWarning\n\n\n\nEach time you start a new shell (or open VSCode), you need to load the python environment again using\nsource .venv/bin/activate\nafter navigating into the root folder of the project."
  },
  {
    "objectID": "docs/wiki/index.html#sec-wiki-installation",
    "href": "docs/wiki/index.html#sec-wiki-installation",
    "title": "Wiki",
    "section": "",
    "text": "1. Install Quarto\n2. Run the install.sh in the scripts folder to install all other project requirements.\n\n\n\n1. Install Quarto\n2. Install all depenencies listed in the scripts/install.sh\n3. Create a python environment for python dependencies, e.g. using\npython -m pip install venv .venv\nin the root folder of the project. Thiscreates a virtual environment called .venv. Now load the environment using\nsource .venv/bin/activate\nand install the python dependencies with\npython -m pip install -r requirements.txt\n\n\n\n\n\n\nWarning\n\n\n\nEach time you start a new shell (or open VSCode), you need to load the python environment again using\nsource .venv/bin/activate\nafter navigating into the root folder of the project."
  },
  {
    "objectID": "docs/wiki/index.html#documentation",
    "href": "docs/wiki/index.html#documentation",
    "title": "Wiki",
    "section": "2 Documentation",
    "text": "2 Documentation\nWe recommend using VS-Code with the Quarto extension installed for any technical writing. Especially in the Quarto Visual Mode, inserting figures/tables/references works like a charm. Add your content in the docs/report section. Feel free to add new *.ipynb or *.qmd files. Make sure to add there files into the _quarto-public.yml and/or _quarto-private.yml to be renderes on the public/private website beloning to this project."
  },
  {
    "objectID": "docs/wiki/index.html#presentation",
    "href": "docs/wiki/index.html#presentation",
    "title": "Wiki",
    "section": "3 Presentation",
    "text": "3 Presentation\nThere is a basic quarto template located in docs/presentation."
  },
  {
    "objectID": "docs/wiki/index.html#adding-a-new-file-to-the-webpage",
    "href": "docs/wiki/index.html#adding-a-new-file-to-the-webpage",
    "title": "Wiki",
    "section": "4 Adding a new file to the webpage",
    "text": "4 Adding a new file to the webpage\nWe have two versions of the website. A private and a public one. The configuration can be found in _quarto-private.yml and quarto-public.yml respectively. Open the corresponding file and add the path to the new file in the sidebar section."
  },
  {
    "objectID": "docs/wiki/index.html#rebuilding-the-website",
    "href": "docs/wiki/index.html#rebuilding-the-website",
    "title": "Wiki",
    "section": "5 Rebuilding the website",
    "text": "5 Rebuilding the website\nThe website is rebuild automatically after a new pushed commit to the main-branch of teh project."
  },
  {
    "objectID": "docs/wiki/index.html#testing-the-full-page-locally",
    "href": "docs/wiki/index.html#testing-the-full-page-locally",
    "title": "Wiki",
    "section": "6 Testing the full page locally:",
    "text": "6 Testing the full page locally:\n\n6.1 Debian/Ubuntu\nRun the scripts/build.sh shell script.\n\n\n\n\n\n\nWarning\n\n\n\nThe script is used in the gitlab-ci to build the website. If you change the script, you might break the automatic building of the webpage.\n\n\n\n\n6.2 Other OS:\nThe following commands are based on the shell commands on Debian/Ubuntu. You need to use the corresponding commands for your OS. If you use a different OS, please contribute your workflow in a script build_&lt;OS&gt;.sh, where you replace &lt;OS&gt; with the OS you are using.\nBuild the private/public webpage via\nquarto render --profile public\nor\nquarto render --profile private\nNow build the presentation, if you want it to be included:\ncd docs/presentation\nquarto render\ncd ../..\nNow copy paste the presentation into the public/private output folder, if you want to enable thel link presentation:\ncd _output-public\ncp -r ../_output_presentation .\ncd ..\nor\ncd _output-private\ncp -r ../_output_presentation .\ncd ..\nLastly, copy the public webpage content into the private folder, if you want to enable the link public website:\ncd _output-private\ncp -r ../_output-public .\ncd .."
  },
  {
    "objectID": "docs/wiki/index.html#faq",
    "href": "docs/wiki/index.html#faq",
    "title": "Wiki",
    "section": "7 FAQ:",
    "text": "7 FAQ:"
  }
]